[
  {
    "latitude": 22.267,
    "longitude": 114.188,
    "location": "Hong Kong",
    "name": "East Asia",
    "provider": "Azure",
    "status": "Launched",
    "color": "#008CDB"
  },
  {
    "latitude": 1.283,
    "longitude": 103.833,
    "location": "Singapore",
    "name": "Southeast Asia",
    "provider": "Azure",
    "status": "Launched",
    "color": "#008CDB"
  },
  {
    "latitude": 41.5908,
    "longitude": -93.6208,
    "location": "Iowa",
    "name": "Central US",
    "provider": "Azure",
    "status": "Launched",
    "color": "#008CDB"
  },
  {
    "latitude": 37.3719,
    "longitude": -79.8164,
    "location": "Virginia",
    "name": "East US",
    "provider": "Azure",
    "status": "Launched",
    "color": "#008CDB"
  },
  {
    "latitude": 36.6681,
    "longitude": -78.3889,
    "location": "Virginia",
    "name": "East US 2",
    "provider": "Azure",
    "status": "Launched",
    "color": "#008CDB"
  },
  {
    "latitude": 37.783,
    "longitude": -122.417,
    "location": "California",
    "name": "West US",
    "provider": "Azure",
    "status": "Launched",
    "color": "#008CDB"
  },
  {
    "latitude": 41.8819,
    "longitude": -87.6278,
    "location": "Illinois",
    "name": "North Central US",
    "provider": "Azure",
    "status": "Launched",
    "color": "#008CDB"
  },
  {
    "latitude": 29.4167,
    "longitude": -98.5,
    "location": "Texas",
    "name": "South Central US",
    "provider": "Azure",
    "status": "Launched",
    "color": "#008CDB"
  },
  {
    "latitude": 53.3478,
    "longitude": -6.2597,
    "location": "Ireland",
    "name": "North Europe",
    "provider": "Azure",
    "status": "Launched",
    "color": "#008CDB"
  },
  {
    "latitude": 52.3667,
    "longitude": 4.9,
    "location": "Netherlands",
    "name": "West Europe",
    "provider": "Azure",
    "status": "Launched",
    "color": "#008CDB"
  },
  {
    "latitude": 34.6939,
    "longitude": 135.5022,
    "location": "Osaka",
    "name": "Japan West",
    "provider": "Azure",
    "status": "Launched",
    "color": "#008CDB"
  },
  {
    "latitude": 35.68,
    "longitude": 139.77,
    "location": "Tokyo",
    "name": "Japan East",
    "provider": "Azure",
    "status": "Launched",
    "color": "#008CDB"
  },
  {
    "latitude": -23.55,
    "longitude": -46.633,
    "location": "São Paulo",
    "name": "Brazil South",
    "provider": "Azure",
    "status": "Launched",
    "color": "#008CDB"
  },
  {
    "latitude": -33.86,
    "longitude": 151.2094,
    "location": "New South Wales",
    "name": "Australia East",
    "provider": "Azure",
    "status": "Launched",
    "color": "#008CDB"
  },
  {
    "latitude": -37.8136,
    "longitude": 144.9631,
    "location": "Victoria",
    "name": "Australia Southeast",
    "provider": "Azure",
    "status": "Launched",
    "color": "#008CDB"
  },
  {
    "latitude": 12.9822,
    "longitude": 80.1636,
    "location": "Chennai",
    "name": "South India",
    "provider": "Azure",
    "status": "Launched",
    "color": "#008CDB"
  },
  {
    "latitude": 18.5822,
    "longitude": 73.9197,
    "location": "Pune",
    "name": "Central India",
    "provider": "Azure",
    "status": "Launched",
    "color": "#008CDB"
  },
  {
    "latitude": 19.088,
    "longitude": 72.868,
    "location": "Mumbai",
    "name": "West India",
    "provider": "Azure",
    "status": "Launched",
    "color": "#008CDB"
  },
  {
    "latitude": 43.653,
    "longitude": -79.383,
    "location": "Toronto",
    "name": "Canada Central",
    "provider": "Azure",
    "status": "Launched",
    "color": "#008CDB"
  },
  {
    "latitude": 46.817,
    "longitude": -71.217,
    "location": "Québec City",
    "name": "Canada East",
    "provider": "Azure",
    "status": "Launched",
    "color": "#008CDB"
  },
  {
    "latitude": 50.941,
    "longitude": -0.799,
    "location": "London",
    "name": "UK South",
    "provider": "Azure",
    "status": "Launched",
    "color": "#008CDB"
  },
  {
    "latitude": 53.427,
    "longitude": -3.084,
    "location": "Cardiff",
    "name": "UK West",
    "provider": "Azure",
    "status": "Launched",
    "color": "#008CDB"
  },
  {
    "latitude": 40.89,
    "longitude": -110.234,
    "location": "Utah",
    "name": "West Central US",
    "provider": "Azure",
    "status": "Launched",
    "color": "#008CDB"
  },
  {
    "latitude": 47.233,
    "longitude": -119.852,
    "location": "Washinton",
    "name": "West US 2",
    "provider": "Azure",
    "status": "Launched",
    "color": "#008CDB"
  },
  {
    "latitude": 37.5665,
    "longitude": 126.978,
    "location": "Seoul",
    "name": "Korea Central",
    "provider": "Azure",
    "status": "Launched",
    "color": "#008CDB"
  },
  {
    "latitude": 35.1796,
    "longitude": 129.0756,
    "location": "Busan",
    "name": "Korea South",
    "provider": "Azure",
    "status": "Launched",
    "color": "#008CDB"
  },
  {
    "latitude": 50.1166,
    "longitude": 8.6833,
    "location": "Frankfurt",
    "name": "Germany Central",
    "provider": "Azure",
    "status": "Launched",
    "color": "#008CDB"
  },
  {
    "latitude": 52.133,
    "longitude": 11.616,
    "location": "Magdeburg",
    "name": "Germany Northeast",
    "provider": "Azure",
    "status": "Launched",
    "color": "#008CDB"
  },
  {
    "latitude": 31.228,
    "longitude": 121.474,
    "location": "Shanghai",
    "name": "China East",
    "provider": "Azure",
    "status": "Launched",
    "color": "#008CDB"
  },
  {
    "latitude": 39.916,
    "longitude": 116.383,
    "location": "Beijing",
    "name": "China North",
    "provider": "Azure",
    "status": "Launched",
    "color": "#008CDB"
  },
  {
    "latitude": -33.890145,
    "longitude": 18.535182,
    "location": "Cape Town",
    "name": "South Africa West",
    "provider": "Azure",
    "status": "Upcoming",
    "color": "#008CDB"
  },
  {
    "latitude": -26.203250,
    "longitude": 28.039166,
    "location": "Johannesburg",
    "name": "South Africa North",
    "provider": "Azure",
    "status": "Upcoming",
    "color": "#008CDB"
  },
  {
    "latitude": -35.774058,
    "longitude": 149.048302,
    "location": "Canberra",
    "name": "Australia Central 1",
    "provider": "Azure",
    "status": "Upcoming",
    "color": "#008CDB"
  },
  {
    "latitude": -35.204392,
    "longitude": 149.122006,
    "location": "Canberra",
    "name": "Australia Central 2",
    "provider": "Azure",
    "status": "Upcoming",
    "color": "#008CDB"
  },
  {
    "latitude": 48.850355,
    "longitude": 2.337102,
    "location": "Paris",
    "name": "France Central",
    "provider": "Azure",
    "status": "Launched",
    "color": "#008CDB"
  },
  {
    "latitude": 43.292310,
    "longitude": 5.370581,
    "location": "Marseille",
    "name": "France South",
    "provider": "Azure",
    "status": "Launched",
    "color": "#008CDB"
  },
  {
    "latitude": 51.1642292,
    "longitude": 10.4541194,
    "location": "Germany",
    "name": "Germany North",
    "provider": "Azure",
    "status": "Upcoming",
    "color": "#008CDB"
  },
  {
    "latitude": 51.1642292,
    "longitude": 10.4541194,
    "location": "Germany",
    "name": "Germany West Central",
    "provider": "Azure",
    "status": "Upcoming",
    "color": "#008CDB"
  },
  {
    "latitude": 46.800663464,
    "longitude": 8.222665776,
    "location": "Switzerland",
    "name": "Switzerland West",
    "provider": "Azure",
    "status": "Upcoming",
    "color": "#008CDB"
  },
  {
    "latitude": 46.800663464,
    "longitude": 8.222665776,
    "location": "Switzerland",
    "name": "Switzerland North",
    "provider": "Azure",
    "status": "Upcoming",
    "color": "#008CDB"
  },
  {
    "latitude": 25.0657,
    "longitude": 55.17128,
    "location": "Dubai",
    "name": "UAE North",
    "provider": "Azure",
    "status": "Upcoming",
    "color": "#008CDB"
  },
  {
    "latitude": 24.46667,
    "longitude": 54.36667,
    "location": "Abu Dhabi",
    "name": "UAE Central",
    "provider": "Azure",
    "status": "Upcoming",
    "color": "#008CDB"
  }
]